﻿division_template = {
	name = "Fótgöngulidh Stórfylki"

	regiments = {
		L_Inf_Bat = { x = 0 y = 0 }
		L_Inf_Bat = { x = 0 y = 1 }
		L_Inf_Bat = { x = 0 y = 2 }
	}
}

units = {

}

instant_effect = {

}