﻿division_template = {
	name = "LURD Militia"

	regiments = {
		L_Inf_Bat = { x = 0 y = 0 }
		L_Inf_Bat = { x = 0 y = 1 }
		L_Inf_Bat = { x = 0 y = 2 }
	}

}

units = {

	division = {
		name = "1st Lurd Brigade"
		location = 13241
		division_template = "LURD Militia"
		start_experience_factor = 0.1
		start_equipment_factor = 0.01
	}

	division = {
		name = "2nd Lurd Brigade"
		location = 13241
		division_template = "LURD Militia"
		start_experience_factor = 0.1
		start_equipment_factor = 0.01
	}

	division = {
		name = "3rd Lurd Brigade"
		location = 13241
		division_template = "LURD Militia"
		start_experience_factor = 0.1
		start_equipment_factor = 0.01
	}

	division = {
		name = "4th Lurd Brigade"
		location = 13241
		division_template = "LURD Militia"
		start_experience_factor = 0.1
		start_equipment_factor = 0.01
	}

}

instant_effect = {

	add_equipment_to_stockpile = {
		type = infantry_weapons
		amount = 3000
		producer = SOV
	}

	add_equipment_to_stockpile = {
		type = Anti_tank_0
		amount = 50
		producer = SOV
	}

	add_equipment_to_stockpile = {
		type = Anti_Air_0
		amount = 50
		producer = SOV
	}

	add_equipment_to_stockpile = {
		type = command_control_equipment
		amount = 50
		producer = SOV
	}

}